{
  "id": "211",
  "prev": [],
  "url": "http://172.17.0.1:8080/job/Test-job/211/",
  "type": "jenkins-build-started",
  "timestamp": "2016-03-21T10:06:33Z",
  "healthy":true,
  "data": {
    "actions": [
      {
        "causes": [
          {
            "shortDescription": "Started by user anonymous",
            "userName": "anonymous"
          }
        ]
      },
      {
        "buildsByBranchName": {
          "refs/remotes/origin/master": {
            "buildNumber": 211,
            "marked": {
              "SHA1": "fc81df1fe70f7a3272008278d02cfa8aa4e95b90",
              "branch": [
                {
                  "SHA1": "fc81df1fe70f7a3272008278d02cfa8aa4e95b90",
                  "name": "refs/remotes/origin/master"
                }
              ]
            },
            "revision": {
              "SHA1": "fc81df1fe70f7a3272008278d02cfa8aa4e95b90",
              "branch": [
                {
                  "SHA1": "fc81df1fe70f7a3272008278d02cfa8aa4e95b90",
                  "name": "refs/remotes/origin/master"
                }
              ]
            }
          }
        },
        "lastBuiltRevision": {
          "SHA1": "fc81df1fe70f7a3272008278d02cfa8aa4e95b90",
          "branch": [
            {
              "SHA1": "fc81df1fe70f7a3272008278d02cfa8aa4e95b90",
              "name": "refs/remotes/origin/master"
            }
          ]
        },
        "remoteUrls": [
          "http://172.17.0.1/root/john.git"
        ],
        "scmName": ""
      },
      {},
      {}
    ],
    "artifacts": [],
    "building": true,
    "displayName": "#211",
    "duration": 0,
    "estimatedDuration": 9957,
    "executor": {},
    "fullDisplayName": "Test-job #211",
    "id": "211",
    "keepLog": false,
    "number": 211,
    "queueId": 130,
    "timestamp": 1458554793292,
    "url": "http://172.17.0.1:8080/job/Test-job/211/",
    "builtOn": "",
    "changeSet": {
      "items": [],
      "kind": "git"
    },
    "culprits": [],
    "mavenVersionUsed": "3.3.9"
  }
}