{
  "id": "297",
  "prev": [
    "297"
  ],
  "url": "http://172.17.0.1:8080/job/Test-job/297/",
  "type": "Jenkins building stopped",
  "timestamp": "2016-05-27T09:56:15Z",
  "data": {
    "actions": [
      {
        "causes": [
          {
            "shortDescription": "Started by user anonymous",
            "userName": "anonymous"
          }
        ]
      },
      {
        "buildsByBranchName": {
          "refs/remotes/origin/master": {
            "buildNumber": 297,
            "marked": {
              "SHA1": "8e01449b0a959e71578bbf5afe076ba35833c213",
              "branch": [
                {
                  "SHA1": "8e01449b0a959e71578bbf5afe076ba35833c213",
                  "name": "refs/remotes/origin/master"
                }
              ]
            },
            "revision": {
              "SHA1": "8e01449b0a959e71578bbf5afe076ba35833c213",
              "branch": [
                {
                  "SHA1": "8e01449b0a959e71578bbf5afe076ba35833c213",
                  "name": "refs/remotes/origin/master"
                }
              ]
            }
          }
        },
        "lastBuiltRevision": {
          "SHA1": "8e01449b0a959e71578bbf5afe076ba35833c213",
          "branch": [
            {
              "SHA1": "8e01449b0a959e71578bbf5afe076ba35833c213",
              "name": "refs/remotes/origin/master"
            }
          ]
        },
        "remoteUrls": [
          "http://172.17.0.1/root/john.git"
        ],
        "scmName": ""
      },
      {},
      {},
      {}
    ],
    "artifacts": [],
    "building": true,
    "displayName": "#297",
    "duration": 0,
    "estimatedDuration": 23115,
    "executor": {},
    "fullDisplayName": "Test-job #297",
    "id": "297",
    "keepLog": false,
    "number": 297,
    "queueId": 30,
    "result": "SUCCESS",
    "timestamp": 1464342975049,
    "url": "http://172.17.0.1:8080/job/Test-job/297/",
    "builtOn": "",
    "changeSet": {
      "items": [
        {
          "affectedPaths": [
            "README.md"
          ],
          "commitId": "c549675961e42cf41ea913b3971d931fcc93dfab",
          "timestamp": 1464342748000,
          "author": {
            "absoluteUrl": "http://172.17.0.1:8080/user/admin",
            "fullName": "admin"
          },
          "comment": "Change made for PROJ-3\n",
          "date": "2016-05-27 09:52:28 +0000",
          "id": "c549675961e42cf41ea913b3971d931fcc93dfab",
          "msg": "Change made for PROJ-3",
          "paths": [
            {
              "editType": "edit",
              "file": "README.md"
            }
          ]
        },
        {
          "affectedPaths": [
            "README.md"
          ],
          "commitId": "8e01449b0a959e71578bbf5afe076ba35833c213",
          "timestamp": 1464342934000,
          "author": {
            "absoluteUrl": "http://172.17.0.1:8080/user/admin",
            "fullName": "admin"
          },
          "comment": "PROJ-4\n",
          "date": "2016-05-27 09:55:34 +0000",
          "id": "8e01449b0a959e71578bbf5afe076ba35833c213",
          "msg": "PROJ-4",
          "paths": [
            {
              "editType": "edit",
              "file": "README.md"
            }
          ]
        }
      ],
      "kind": "git"
    },
    "culprits": [
      {
        "absoluteUrl": "http://172.17.0.1:8080/user/admin",
        "fullName": "admin"
      }
    ],
    "mavenArtifacts": {},
    "mavenVersionUsed": "3.3.9"
  }
}
