-------------------------------------------------------------------------------
Test set: dk.itu.tracy.facde.JsonParserUtillTest
-------------------------------------------------------------------------------
Tests run: 5, Failures: 0, Errors: 0, Skipped: 0, Time elapsed: 0.643 sec
